00_cautrucmaytinh/10_sim/dump.vcd
$version Generated by VerilatedVcd $end
$date Thu Nov 14 16:17:39 2024
 $end
$timescale   1ps $end

 $scope module top $end
  $var wire  1 ' br_equal $end
  $var wire  1 & br_less $end
  $var wire  1 % br_unsigned $end
  $var wire 32 # rs1_data [31:0] $end
  $var wire 32 $ rs2_data [31:0] $end
  $scope module brc $end
   $var wire  1 , br_equal $end
   $var wire  1 + br_less $end
   $var wire  1 * br_unsigned $end
   $var wire 32 ( rs1_data [31:0] $end
   $var wire 32 ) rs2_data [31:0] $end
   $scope module addsubcomp $end
    $var wire  1 3 equal $end
    $var wire 33 4 extendedA [32:0] $end
    $var wire 33 6 extendedB [32:0] $end
    $var wire 32 - inA [31:0] $end
    $var wire 32 . inB [31:0] $end
    $var wire  1 2 less_than $end
    $var wire  1 / neg_sel $end
    $var wire 33 8 newB [32:0] $end
    $var wire 32 1 result [31:0] $end
    $var wire  1 0 unsigned_sel $end
   $upscope $end
  $upscope $end
 $upscope $end
$enddefinitions $end


#0
b10111100011101111100110000001101 #
b00101011010001010000011110100001 $
1%
0&
0'
b10111100011101111100110000001101 (
b00101011010001010000011110100001 )
1*
0+
0,
b10111100011101111100110000001101 -
b00101011010001010000011110100001 .
1/
10
b10010001001100101100010001101100 1
02
03
b010111100011101111100110000001101 4
b000101011010001010000011110100001 6
b111010100101110101111100001011111 8
#10000
b01111010101101000100110100010111 #
b10001011100100110001111001010111 $
0%
b01111010101101000100110100010111 (
b10001011100100110001111001010111 )
0*
b01111010101101000100110100010111 -
b10001011100100110001111001010111 .
00
b11101111001000010010111011000000 1
b001111010101101000100110100010111 4
b110001011100100110001111001010111 6
b001110100011011001110000110101001 8
#20000
b11000111000010101011010110101100 #
b00000101110101111110110110100110 $
1%
b11000111000010101011010110101100 (
b00000101110101111110110110100110 )
1*
b11000111000010101011010110101100 -
b00000101110101111110110110100110 .
10
b11000001001100101100100000000110 1
b011000111000010101011010110101100 4
b000000101110101111110110110100110 6
b111111010001010000001001001011010 8
#30000
b10000101111011111100000100001101 #
b10111101110000100111001111110111 $
1&
b10000101111011111100000100001101 (
b10111101110000100111001111110111 )
1+
b10000101111011111100000100001101 -
b10111101110000100111001111110111 .
b11001000001011010100110100010110 1
12
b010000101111011111100000100001101 4
b010111101110000100111001111110111 6
b101000010001111011000110000001001 8
#40000
b01000110111100111001100111110010 #
b01111110110111001101110001010011 $
b01000110111100111001100111110010 (
b01111110110111001101110001010011 )
b01000110111100111001100111110010 -
b01111110110111001101110001010011 .
b11001000000101101011110110011111 1
b001000110111100111001100111110010 4
b001111110110111001101110001010011 6
b110000001001000110010001110101101 8
#50000
b11001110101100101000011110001110 #
b10111000000111000110101100011110 $
0%
0&
b11001110101100101000011110001110 (
b10111000000111000110101100011110 )
0*
0+
b11001110101100101000011110001110 -
b10111000000111000110101100011110 .
00
b00010110100101100001110001110000 1
02
b111001110101100101000011110001110 4
b110111000000111000110101100011110 6
b001000111111000111001010011100010 8
#60000
b11101010001011110010101101100110 #
b01110110110101011010001001111101 $
1%
b11101010001011110010101101100110 (
b01110110110101011010001001111101 )
1*
b11101010001011110010101101100110 -
b01110110110101011010001001111101 .
10
b01110011010110011000100011101001 1
b011101010001011110010101101100110 4
b001110110110101011010001001111101 6
b110001001001010100101110110000011 8
#70000
b01001111110010000100001110001001 #
b10101010011001000111110000110101 $
0%
b01001111110010000100001110001001 (
b10101010011001000111110000110101 )
0*
b01001111110010000100001110001001 -
b10101010011001000111110000110101 .
00
b10100101011000111100011101010100 1
b001001111110010000100001110001001 4
b110101010011001000111110000110101 6
b001010101100110111000001111001011 8
#80000
b10000100100100000111100101011111 #
b01111110111011100101001111000101 $
1&
b10000100100100000111100101011111 (
b01111110111011100101001111000101 )
1+
b10000100100100000111100101011111 -
b01111110111011100101001111000101 .
b00000101101000100010010110011010 1
12
b110000100100100000111100101011111 4
b001111110111011100101001111000101 6
b110000001000100011010110000111011 8
#90000
b01110011011100001011001011110100 #
b11000110101110111011001011100100 $
1%
b01110011011100001011001011110100 (
b11000110101110111011001011100100 )
1*
b01110011011100001011001011110100 -
b11000110101110111011001011100100 .
10
b10101100101101010000000000010000 1
b001110011011100001011001011110100 4
b011000110101110111011001011100100 6
b100111001010001000100110100011100 8
#100000
b11101111100001000110111100000111 #
b00011010101101011110011010110111 $
0&
b11101111100001000110111100000111 (
b00011010101101011110011010110111 )
0+
b11101111100001000110111100000111 -
b00011010101101011110011010110111 .
b11010100110011101000100001010000 1
02
b011101111100001000110111100000111 4
b000011010101101011110011010110111 6
b111100101010010100001100101001001 8
#110000
b11011110110101101001101000110110 #
b10010101010100100001111001100100 $
0%
b11011110110101101001101000110110 (
b10010101010100100001111001100100 )
0*
b11011110110101101001101000110110 -
b10010101010100100001111001100100 .
00
b01001001100001000111101111010010 1
b111011110110101101001101000110110 4
b110010101010100100001111001100100 6
b001101010101011011110000110011100 8
#120000
b11111100110011100111100110010011 #
b01110001000001011000001011011010 $
1%
b11111100110011100111100110010011 (
b01110001000001011000001011011010 )
1*
b11111100110011100111100110010011 -
b01110001000001011000001011011010 .
10
b10001011110010001111011010111001 1
b011111100110011100111100110010011 4
b001110001000001011000001011011010 6
b110001110111110100111110100100110 8
#130000
b01010101111101100000111110110011 #
b11010100010011000001011100110011 $
1&
b01010101111101100000111110110011 (
b11010100010011000001011100110011 )
1+
b01010101111101100000111110110011 -
b11010100010011000001011100110011 .
b10000001101010011111100010000000 1
12
b001010101111101100000111110110011 4
b011010100010011000001011100110011 6
b100101011101100111110100011001101 8
#140000
b10001000100100101111001110001000 #
b10000111010101111100111111000010 $
0%
0&
b10001000100100101111001110001000 (
b10000111010101111100111111000010 )
0*
0+
b10001000100100101111001110001000 -
b10000111010101111100111111000010 .
00
b00000001001110110010001111000110 1
02
b110001000100100101111001110001000 4
b110000111010101111100111111000010 6
b001111000101010000011000000111110 8
#150000
b00111001101000011101111111100111 #
b10000111000101100000011010011111 $
b00111001101000011101111111100111 (
b10000111000101100000011010011111 )
b00111001101000011101111111100111 -
b10000111000101100000011010011111 .
b10110010100010111101100101001000 1
b000111001101000011101111111100111 4
b110000111000101100000011010011111 6
b001111000111010011111100101100001 8
#160000
b11110110001001001111100101100100 #
b01111010001101110100110001011000 $
1%
b11110110001001001111100101100100 (
b01111010001101110100110001011000 )
1*
b11110110001001001111100101100100 -
b01111010001101110100110001011000 .
10
b01111011111011011010110100001100 1
b011110110001001001111100101100100 4
b001111010001101110100110001011000 6
b110000101110010001011001110101000 8
#170000
b00001100101101110011011111111001 #
b00001111100101100100001010011011 $
1&
b00001100101101110011011111111001 (
b00001111100101100100001010011011 )
1+
b00001100101101110011011111111001 -
b00001111100101100100001010011011 .
b11111101001000001111010101011110 1
12
b000001100101101110011011111111001 4
b000001111100101100100001010011011 6
b111110000011010011011110101100101 8
#180000
b10111101101100011001001011100111 #
b10000011010101110111011001011111 $
0&
b10111101101100011001001011100111 (
b10000011010101110111011001011111 )
0+
b10111101101100011001001011100111 -
b10000011010101110111011001011111 .
b00111010010110100001110010001000 1
02
b010111101101100011001001011100111 4
b010000011010101110111011001011111 6
b101111100101010001000100110100001 8
#190000
b10011011001111000100111111110011 #
b11100111110000010111100100001110 $
1&
b10011011001111000100111111110011 (
b11100111110000010111100100001110 )
1+
b10011011001111000100111111110011 -
b11100111110000010111100100001110 .
b10110011011110101101011011100101 1
12
b010011011001111000100111111110011 4
b011100111110000010111100100001110 6
b100011000001111101000011011110010 8
#200000
b10001010011100000010101001001000 #
b00000001100100100010000111100011 $
0&
b10001010011100000010101001001000 (
b00000001100100100010000111100011 )
0+
b10001010011100000010101001001000 -
b00000001100100100010000111100011 .
b10001000110111100000100001100101 1
02
b010001010011100000010101001001000 4
b000000001100100100010000111100011 6
b111111110011011011101111000011101 8
#210000
b00011000100000101101000000100001 #
b01001010111000100101011110101010 $
1&
b00011000100000101101000000100001 (
b01001010111000100101011110101010 )
1+
b00011000100000101101000000100001 -
b01001010111000100101011110101010 .
b11001101101000000111100001110111 1
12
b000011000100000101101000000100001 4
b001001010111000100101011110101010 6
b110110101000111011010100001010110 8
#220000
b00101010101001000010011011111001 #
b01111110000001001100101001010001 $
0%
b00101010101001000010011011111001 (
b01111110000001001100101001010001 )
0*
b00101010101001000010011011111001 -
b01111110000001001100101001010001 .
00
b10101100100111110101110010101000 1
b000101010101001000010011011111001 4
b001111110000001001100101001010001 6
b110000001111110110011010110101111 8
#230000
b00111011100100101000100100010010 #
b00110010100000111101100101111110 $
1%
0&
b00111011100100101000100100010010 (
b00110010100000111101100101111110 )
1*
0+
b00111011100100101000100100010010 -
b00110010100000111101100101111110 .
10
b00001001000011101010111110010100 1
02
b000111011100100101000100100010010 4
b000110010100000111101100101111110 6
b111001101011111000010011010000010 8
#240000
b10110101011110010111000110001111 #
b11110110111100110110010000111001 $
0%
1&
b10110101011110010111000110001111 (
b11110110111100110110010000111001 )
0*
1+
b10110101011110010111000110001111 -
b11110110111100110110010000111001 .
00
b10111110100001100000110101010110 1
12
b110110101011110010111000110001111 4
b111110110111100110110010000111001 6
b000001001000011001001101111000111 8
#250000
b00101101110001111100100010111111 #
b11110111000000111101011110111111 $
1%
b00101101110001111100100010111111 (
b11110111000000111101011110111111 )
1*
b00101101110001111100100010111111 -
b11110111000000111101011110111111 .
10
b00110110110000111111000100000000 1
b000101101110001111100100010111111 4
b011110111000000111101011110111111 6
b100001000111111000010100001000001 8
#260000
b01000100100101111101101110001110 #
b00110010001001100111011000011111 $
0&
b01000100100101111101101110001110 (
b00110010001001100111011000011111 )
0+
b01000100100101111101101110001110 -
b00110010001001100111011000011111 .
b00010010011100010110010101101111 1
02
b001000100100101111101101110001110 4
b000110010001001100111011000011111 6
b111001101110110011000100111100001 8
#270000
b10100101101111011000100111001110 #
b10000101101000111100101110001111 $
b10100101101111011000100111001110 (
b10000101101000111100101110001111 )
b10100101101111011000100111001110 -
b10000101101000111100101110001111 .
b00100000000110011011111000111111 1
b010100101101111011000100111001110 4
b010000101101000111100101110001111 6
b101111010010111000011010001110001 8
#280000
b10001100110111000000100110100101 #
b10110111001011001010010001000101 $
0%
1&
b10001100110111000000100110100101 (
b10110111001011001010010001000101 )
0*
1+
b10001100110111000000100110100101 -
b10110111001011001010010001000101 .
00
b11010101101011110110010101100000 1
12
b110001100110111000000100110100101 4
b110110111001011001010010001000101 6
b001001000110100110101101110111011 8
#290000
b00010101111101100010101001001100 #
b10110010101101101011001110011010 $
1%
b00010101111101100010101001001100 (
b10110010101101101011001110011010 )
1*
b00010101111101100010101001001100 -
b10110010101101101011001110011010 .
10
b01100011001111110111011010110010 1
b000010101111101100010101001001100 4
b010110010101101101011001110011010 6
b101001101010010010100110001100110 8
#300000
b11111100100011000101110101011110 #
b10001100001101010001110100011001 $
0&
b11111100100011000101110101011110 (
b10001100001101010001110100011001 )
0+
b11111100100011000101110101011110 -
b10001100001101010001110100011001 .
b01110000010101110100000001000101 1
02
b011111100100011000101110101011110 4
b010001100001101010001110100011001 6
b101110011110010101110001011100111 8
#310000
b00010000100110111100101101110111 #
b11011000001011000000101000001100 $
1&
b00010000100110111100101101110111 (
b11011000001011000000101000001100 )
1+
b00010000100110111100101101110111 -
b11011000001011000000101000001100 .
b00111000011011111100000101101011 1
12
b000010000100110111100101101110111 4
b011011000001011000000101000001100 6
b100100111110100111111010111110100 8
#320000
b01010111110101110010010000101001 #
b11110000110011101000000011101001 $
0%
0&
b01010111110101110010010000101001 (
b11110000110011101000000011101001 )
0*
0+
b01010111110101110010010000101001 -
b11110000110011101000000011101001 .
00
b01100111000010001010001101000000 1
02
b001010111110101110010010000101001 4
b111110000110011101000000011101001 6
b000001111001100010111111100010111 8
#330000
b10100011011010011110101101001101 #
b00011110001001000110001111010110 $
1&
b10100011011010011110101101001101 (
b00011110001001000110001111010110 )
1+
b10100011011010011110101101001101 -
b00011110001001000110001111010110 .
b10000101010001011000011101110111 1
12
b110100011011010011110101101001101 4
b000011110001001000110001111010110 6
b111100001110110111001110000101010 8
#340000
b00101101101101110100001001100110 #
b10011011100111000110110100111110 $
0&
b00101101101101110100001001100110 (
b10011011100111000110110100111110 )
0+
b00101101101101110100001001100110 -
b10011011100111000110110100111110 .
b10010010000110101101010100101000 1
02
b000101101101101110100001001100110 4
b110011011100111000110110100111110 6
b001100100011000111001001011000010 8
#350000
b10110110110011001011110000010000 #
b01101110001110111111000110011111 $
1&
b10110110110011001011110000010000 (
b01101110001110111111000110011111 )
1+
b10110110110011001011110000010000 -
b01101110001110111111000110011111 .
b01001000100100001100101001110001 1
12
b110110110110011001011110000010000 4
b001101110001110111111000110011111 6
b110010001110001000000111001100001 8
#360000
b01001100110011111010100110110110 #
b00000111101111100110010011010010 $
1%
0&
b01001100110011111010100110110110 (
b00000111101111100110010011010010 )
1*
0+
b01001100110011111010100110110110 -
b00000111101111100110010011010010 .
10
b01000101000100010100010011100100 1
02
b001001100110011111010100110110110 4
b000000111101111100110010011010010 6
b111111000010000011001101100101110 8
#370000
b11000101011101100010100011100101 #
b01110001101111111110110000000000 $
b11000101011101100010100011100101 (
b01110001101111111110110000000000 )
b11000101011101100010100011100101 -
b01110001101111111110110000000000 .
b01010011101101100011110011100101 1
b011000101011101100010100011100101 4
b001110001101111111110110000000000 6
b110001110010000000001010000000000 8
#380000
b01110001101100111110010011110000 #
b01110101100100001101010111100100 $
0%
1&
b01110001101100111110010011110000 (
b01110101100100001101010111100100 )
0*
1+
b01110001101100111110010011110000 -
b01110101100100001101010111100100 .
00
b11111100001000110000111100001100 1
12
b001110001101100111110010011110000 4
b001110101100100001101010111100100 6
b110001010011011110010101000011100 8
#390000
b00111011001000001000001011000101 #
b00000101001111010000100000010010 $
0&
b00111011001000001000001011000101 (
b00000101001111010000100000010010 )
0+
b00111011001000001000001011000101 -
b00000101001111010000100000010010 .
b00110101111000110111101010110011 1
02
b000111011001000001000001011000101 4
b000000101001111010000100000010010 6
b111111010110000101111011111101110 8
#400000
b10000101111011000001011010110010 #
b00100000010000110111100110011000 $
1&
b10000101111011000001011010110010 (
b00100000010000110111100110011000 )
1+
b10000101111011000001011010110010 -
b00100000010000110111100110011000 .
b01100101101010001001110100011010 1
12
b110000101111011000001011010110010 4
b000100000010000110111100110011000 6
b111011111101111001000011001101000 8
#410000
b00110101110101101000000110010001 #
b11011000011001111000001111001101 $
0&
b00110101110101101000000110010001 (
b11011000011001111000001111001101 )
0+
b00110101110101101000000110010001 -
b11011000011001111000001111001101 .
b01011101011011101111110111000100 1
02
b000110101110101101000000110010001 4
b111011000011001111000001111001101 6
b000100111100110000111110000110011 8
#420000
b01011110000011010000000111100010 #
b10001011010010101011101111001101 $
1%
1&
b01011110000011010000000111100010 (
b10001011010010101011101111001101 )
1*
1+
b01011110000011010000000111100010 -
b10001011010010101011101111001101 .
10
b11010010110000100100011000010101 1
12
b001011110000011010000000111100010 4
b010001011010010101011101111001101 6
b101110100101101010100010000110011 8
#430000
b00010001010011110011111101010111 #
b00111111111101000111101010001011 $
0%
b00010001010011110011111101010111 (
b00111111111101000111101010001011 )
0*
b00010001010011110011111101010111 -
b00111111111101000111101010001011 .
00
b11010001010110101100010011001100 1
b000010001010011110011111101010111 4
b000111111111101000111101010001011 6
b111000000000010111000010101110101 8
#440000
b00100101001010100101110000110110 #
b10100010110110001111011010101001 $
1%
b00100101001010100101110000110110 (
b10100010110110001111011010101001 )
1*
b00100101001010100101110000110110 -
b10100010110110001111011010101001 .
10
b10000010010100010110010110001101 1
b000100101001010100101110000110110 4
b010100010110110001111011010101001 6
b101011101001001110000100101010111 8
#450000
b00001000000000000000100001000011 #
b01000100010100001000010001011100 $
0%
b00001000000000000000100001000011 (
b01000100010100001000010001011100 )
0*
b00001000000000000000100001000011 -
b01000100010100001000010001011100 .
00
b11000011101011111000001111100111 1
b000001000000000000000100001000011 4
b001000100010100001000010001011100 6
b110111011101011110111101110100100 8
#460000
b01001001010011000111100011100101 #
b11110000100100111110001100000000 $
0&
b01001001010011000111100011100101 (
b11110000100100111110001100000000 )
0+
b01001001010011000111100011100101 -
b11110000100100111110001100000000 .
b01011000101110001001010111100101 1
02
b001001001010011000111100011100101 4
b111110000100100111110001100000000 6
b000001111011011000001110100000000 8
#470000
b11010000000111011011111101110001 #
b11111011100000100110110001101110 $
1%
1&
b11010000000111011011111101110001 (
b11111011100000100110110001101110 )
1*
1+
b11010000000111011011111101110001 -
b11111011100000100110110001101110 .
10
b11010100100110110101001100000011 1
12
b011010000000111011011111101110001 4
b011111011100000100110110001101110 6
b100000100011111011001001110010010 8
#480000
b01101101101011110100100010111101 #
b00100100010111110000110101110011 $
0&
b01101101101011110100100010111101 (
b00100100010111110000110101110011 )
0+
b01101101101011110100100010111101 -
b00100100010111110000110101110011 .
b01001001010100000011101101001010 1
02
b001101101101011110100100010111101 4
b000100100010111110000110101110011 6
b111011011101000001111001010001101 8
#490000
b01111010011110111000010110011111 #
b01101111100100100001001111110110 $
0%
b01111010011110111000010110011111 (
b01101111100100100001001111110110 )
0*
b01111010011110111000010110011111 -
b01101111100100100001001111110110 .
00
b00001010111010010111000110101001 1
b001111010011110111000010110011111 4
b001101111100100100001001111110110 6
b110010000011011011110110000001010 8
#500000
b01110100010110010010100011101001 #
b10111010010101011111000010101110 $
b01110100010110010010100011101001 (
b10111010010101011111000010101110 )
b01110100010110010010100011101001 -
b10111010010101011111000010101110 .
b10111010000000110011100000111011 1
b001110100010110010010100011101001 4
b110111010010101011111000010101110 6
b001000101101010100000111101010010 8
#510000
b01000010100011100010000001111110 #
b10001000101110001001001111100111 $
1%
1&
b01000010100011100010000001111110 (
b10001000101110001001001111100111 )
1*
1+
b01000010100011100010000001111110 -
b10001000101110001001001111100111 .
10
b10111001110101011000110010010111 1
12
b001000010100011100010000001111110 4
b010001000101110001001001111100111 6
b101110111010001110110110000011001 8
#520000
b00111000000011010001011010100100 #
b01001100100010100100101011000010 $
b00111000000011010001011010100100 (
b01001100100010100100101011000010 )
b00111000000011010001011010100100 -
b01001100100010100100101011000010 .
b11101011100000101100101111100010 1
b000111000000011010001011010100100 4
b001001100100010100100101011000010 6
b110110011011101011011010100111110 8
#530000
b01001010010000100110111100111101 #
b11000111010100011001100011101101 $
0%
0&
b01001010010000100110111100111101 (
b11000111010100011001100011101101 )
0*
0+
b01001010010000100110111100111101 -
b11000111010100011001100011101101 .
00
b10000010111100001101011001010000 1
02
b001001010010000100110111100111101 4
b111000111010100011001100011101101 6
b000111000101011100110011100010011 8
#540000
b11011001010000100001011100000110 #
b10110110010001011011010100110001 $
b11011001010000100001011100000110 (
b10110110010001011011010100110001 )
b11011001010000100001011100000110 -
b10110110010001011011010100110001 .
b00100010111111000110000111010101 1
b111011001010000100001011100000110 4
b110110110010001011011010100110001 6
b001001001101110100100101011001111 8
#550000
b11011111111001011000000101101001 #
b00010111011101011000011000111101 $
1&
b11011111111001011000000101101001 (
b00010111011101011000011000111101 )
1+
b11011111111001011000000101101001 -
b00010111011101011000011000111101 .
b11001000011011111111101100101100 1
12
b111011111111001011000000101101001 4
b000010111011101011000011000111101 6
b111101000100010100111100111000011 8
#560000
b11111011001111110000100011101011 #
b01001100101100101011101011100110 $
1%
0&
b11111011001111110000100011101011 (
b01001100101100101011101011100110 )
1*
0+
b11111011001111110000100011101011 -
b01001100101100101011101011100110 .
10
b10101110100011000100111000000101 1
02
b011111011001111110000100011101011 4
b001001100101100101011101011100110 6
b110110011010011010100010100011010 8
#570000
b01011110111000010010000100000000 #
b10111110110110000100111000101111 $
1&
b01011110111000010010000100000000 (
b10111110110110000100111000101111 )
1+
b01011110111000010010000100000000 -
b10111110110110000100111000101111 .
b10100000000010001101001011010001 1
12
b001011110111000010010000100000000 4
b010111110110110000100111000101111 6
b101000001001001111011000111010001 8
#580000
b01111110111100001101000101001010 #
b11001011111010101101111100101101 $
b01111110111100001101000101001010 (
b11001011111010101101111100101101 )
b01111110111100001101000101001010 -
b11001011111010101101111100101101 .
b10110011000001011111001000011101 1
b001111110111100001101000101001010 4
b011001011111010101101111100101101 6
b100110100000101010010000011010011 8
#590000
b10010100010001001001001011010111 #
b00101010100110100001110010110010 $
0&
b10010100010001001001001011010111 (
b00101010100110100001110010110010 )
0+
b10010100010001001001001011010111 -
b00101010100110100001110010110010 .
b01101001101010100111011000100101 1
02
b010010100010001001001001011010111 4
b000101010100110100001110010110010 6
b111010101011001011110001101001110 8
#600000
b01011000101111000010000001000110 #
b00110011001011101101100011011111 $
b01011000101111000010000001000110 (
b00110011001011101101100011011111 )
b01011000101111000010000001000110 -
b00110011001011101101100011011111 .
b00100101100011010100011101100111 1
b001011000101111000010000001000110 4
b000110011001011101101100011011111 6
b111001100110100010010011100100001 8
#610000
b10010101010101101011110110000100 #
b10111100000011001110110001111000 $
0%
1&
b10010101010101101011110110000100 (
b10111100000011001110110001111000 )
0*
1+
b10010101010101101011110110000100 -
b10111100000011001110110001111000 .
00
b11011001010010011101000100001100 1
12
b110010101010101101011110110000100 4
b110111100000011001110110001111000 6
b001000011111100110001001110001000 8
#620000
b11101010010000100111001001000100 #
b01110000010000110111010101110000 $
1%
0&
b11101010010000100111001001000100 (
b01110000010000110111010101110000 )
1*
0+
b11101010010000100111001001000100 -
b01110000010000110111010101110000 .
10
b01111001111111101111110011010100 1
02
b011101010010000100111001001000100 4
b001110000010000110111010101110000 6
b110001111101111001000101010010000 8
#630000
b00001110100001001110110111011110 #
b10100101101101101011101100010100 $
1&
b00001110100001001110110111011110 (
b10100101101101101011101100010100 )
1+
b00001110100001001110110111011110 -
b10100101101101101011101100010100 .
b01101000110011100011001011001010 1
12
b000001110100001001110110111011110 4
b010100101101101101011101100010100 6
b101011010010010010100010011101100 8
#640000
b10110110001111000010001010011001 #
b11000010011100011011010111000101 $
b10110110001111000010001010011001 (
b11000010011100011011010111000101 )
b10110110001111000010001010011001 -
b11000010011100011011010111000101 .
b11110011110010100110110011010100 1
b010110110001111000010001010011001 4
b011000010011100011011010111000101 6
b100111101100011100100101000111011 8
#650000
b01010101010111010010111101010100 #
b01101110001010001101010011010110 $
b01010101010111010010111101010100 (
b01101110001010001101010011010110 )
b01010101010111010010111101010100 -
b01101110001010001101010011010110 .
b11100111001101000101101001111110 1
b001010101010111010010111101010100 4
b001101110001010001101010011010110 6
b110010001110101110010101100101010 8
#660000
b11000010111110011110000011000001 #
b00100110010110100000000011001100 $
0%
b11000010111110011110000011000001 (
b00100110010110100000000011001100 )
0*
b11000010111110011110000011000001 -
b00100110010110100000000011001100 .
00
b10011100100111111101111111110101 1
b111000010111110011110000011000001 4
b000100110010110100000000011001100 6
b111011001101001011111111100110100 8
#670000
b10101010111000001101000000001101 #
b11100001011110010000110001001111 $
1%
b10101010111000001101000000001101 (
b11100001011110010000110001001111 )
1*
b10101010111000001101000000001101 -
b11100001011110010000110001001111 .
10
b11001001011001111100001110111110 1
b010101010111000001101000000001101 4
b011100001011110010000110001001111 6
b100011110100001101111001110110001 8
#680000
b00101110010101001010001011110000 #
b10010000010111111100000110010001 $
b00101110010101001010001011110000 (
b10010000010111111100000110010001 )
b00101110010101001010001011110000 -
b10010000010111111100000110010001 .
b10011101111101001110000101011111 1
b000101110010101001010001011110000 4
b010010000010111111100000110010001 6
b101101111101000000011111001101111 8
#690000
b10100000111010010111011101111001 #
b10000010110010100101011110001110 $
0&
b10100000111010010111011101111001 (
b10000010110010100101011110001110 )
0+
b10100000111010010111011101111001 -
b10000010110010100101011110001110 .
b00011110000111110001111111101011 1
02
b010100000111010010111011101111001 4
b010000010110010100101011110001110 6
b101111101001101011010100001110010 8
#700000
b11100111011110111100110111111100 #
b11101011110101000100110110111101 $
1&
b11100111011110111100110111111100 (
b11101011110101000100110110111101 )
1+
b11100111011110111100110111111100 -
b11101011110101000100110110111101 .
b11111011101001111000000000111111 1
12
b011100111011110111100110111111100 4
b011101011110101000100110110111101 6
b100010100001010111011001001000011 8
#710000
b10110011001101001100010111011110 #
b11101101110000000010011111011101 $
b10110011001101001100010111011110 (
b11101101110000000010011111011101 )
b10110011001101001100010111011110 -
b11101101110000000010011111011101 .
b11000101011101001001111000000001 1
b010110011001101001100010111011110 4
b011101101110000000010011111011101 6
b100010010001111111101100000100011 8
#720000
b11011010100001111011000101000101 #
b11110000010010011101000110000001 $
0%
b11011010100001111011000101000101 (
b11110000010010011101000110000001 )
0*
b11011010100001111011000101000101 -
b11110000010010011101000110000001 .
00
b11101010001111011101111111000100 1
b111011010100001111011000101000101 4
b111110000010010011101000110000001 6
b000001111101101100010111001111111 8
#730000
b10000000101010010100000001010010 #
b00111110101101100010000000111101 $
b10000000101010010100000001010010 (
b00111110101101100010000000111101 )
b10000000101010010100000001010010 -
b00111110101101100010000000111101 .
b01000001111100110010000000010101 1
b110000000101010010100000001010010 4
b000111110101101100010000000111101 6
b111000001010010011101111111000011 8
#740000
b10000011110011110001001100000011 #
b00110000000111010011011000011001 $
b10000011110011110001001100000011 (
b00110000000111010011011000011001 )
b10000011110011110001001100000011 -
b00110000000111010011011000011001 .
b01010011101100011101110011101010 1
b110000011110011110001001100000011 4
b000110000000111010011011000011001 6
b111001111111000101100100111100111 8
#750000
b10101000011111011000011001101101 #
b00011000110011100100011010100100 $
1%
0&
b10101000011111011000011001101101 (
b00011000110011100100011010100100 )
1*
0+
b10101000011111011000011001101101 -
b00011000110011100100011010100100 .
10
b10001111101011110011111111001001 1
02
b010101000011111011000011001101101 4
b000011000110011100100011010100100 6
b111100111001100011011100101011100 8
#760000
b00111000000101000001001001101001 #
b10010100001011110000101100111111 $
0%
b00111000000101000001001001101001 (
b10010100001011110000101100111111 )
0*
b00111000000101000001001001101001 -
b10010100001011110000101100111111 .
00
b10100011111001010000011100101010 1
b000111000000101000001001001101001 4
b110010100001011110000101100111111 6
b001101011110100001111010011000001 8
#770000
b01001011010111001001000010101010 #
b00011011110111101110110110001110 $
1%
b01001011010111001001000010101010 (
b00011011110111101110110110001110 )
1*
b01001011010111001001000010101010 -
b00011011110111101110110110001110 .
10
b00101111011111011010001100011100 1
b001001011010111001001000010101010 4
b000011011110111101110110110001110 6
b111100100001000010001001001110010 8
#780000
b11101111100111100000101001110111 #
b01101000011000111011011001000110 $
b11101111100111100000101001110111 (
b01101000011000111011011001000110 )
b11101111100111100000101001110111 -
b01101000011000111011011001000110 .
b10000111001110100101010000110001 1
b011101111100111100000101001110111 4
b001101000011000111011011001000110 6
b110010111100111000100100110111010 8
#790000
b10010110100101101011100001110110 #
b01000001001011001101010011110001 $
b10010110100101101011100001110110 (
b01000001001011001101010011110001 )
b10010110100101101011100001110110 -
b01000001001011001101010011110001 .
b01010101011010011110001110000101 1
b010010110100101101011100001110110 4
b001000001001011001101010011110001 6
b110111110110100110010101100001111 8
#800000
b00111111000100111011110010000110 #
b10100011101110000001001101111000 $
1&
b00111111000100111011110010000110 (
b10100011101110000001001101111000 )
1+
b00111111000100111011110010000110 -
b10100011101110000001001101111000 .
b10011011010110111010100100001110 1
12
b000111111000100111011110010000110 4
b010100011101110000001001101111000 6
b101011100010001111110110010001000 8
#810000
b10001000110011110011100001111011 #
b10001010011111001010110100000101 $
0%
b10001000110011110011100001111011 (
b10001010011111001010110100000101 )
0*
b10001000110011110011100001111011 -
b10001010011111001010110100000101 .
00
b11111110010100101000101101110110 1
b110001000110011110011100001111011 4
b110001010011111001010110100000101 6
b001110101100000110101001011111011 8
#820000
b11100100110011001010110000000110 #
b10100100111011011000011110101011 $
1%
0&
b11100100110011001010110000000110 (
b10100100111011011000011110101011 )
1*
0+
b11100100110011001010110000000110 -
b10100100111011011000011110101011 .
10
b00111111110111110010010001011011 1
02
b011100100110011001010110000000110 4
b010100100111011011000011110101011 6
b101011011000100100111100001010101 8
#830000
b01111111000011001001111100110101 #
b11010111001011011100110111001111 $
1&
b01111111000011001001111100110101 (
b11010111001011011100110111001111 )
1+
b01111111000011001001111100110101 -
b11010111001011011100110111001111 .
b10100111110111101101000101100110 1
12
b001111111000011001001111100110101 4
b011010111001011011100110111001111 6
b100101000110100100011001000110001 8
#840000
b11111011100010001001010111011111 #
b01110001111001111111011111101100 $
0%
b11111011100010001001010111011111 (
b01110001111001111111011111101100 )
0*
b11111011100010001001010111011111 -
b01110001111001111111011111101100 .
00
b10001001101000001001110111110011 1
b111111011100010001001010111011111 4
b001110001111001111111011111101100 6
b110001110000110000000100000010100 8
#850000
b10101010100111011010001010100001 #
b00000001001110010101001111110111 $
1%
0&
b10101010100111011010001010100001 (
b00000001001110010101001111110111 )
1*
0+
b10101010100111011010001010100001 -
b00000001001110010101001111110111 .
10
b10101001011001000100111010101010 1
02
b010101010100111011010001010100001 4
b000000001001110010101001111110111 6
b111111110110001101010110000001001 8
#860000
b00011010000110110110000000101001 #
b00001010010100101001011010110000 $
0%
b00011010000110110110000000101001 (
b00001010010100101001011010110000 )
0*
b00011010000110110110000000101001 -
b00001010010100101001011010110000 .
00
b00001111110010001100100101111001 1
b000011010000110110110000000101001 4
b000001010010100101001011010110000 6
b111110101101011010110100101010000 8
#870000
b01010001011000100000111101010100 #
b11111110111100001101100000101011 $
b01010001011000100000111101010100 (
b11111110111100001101100000101011 )
b01010001011000100000111101010100 -
b11111110111100001101100000101011 .
b01010010011100010011011100101001 1
b001010001011000100000111101010100 4
b111111110111100001101100000101011 6
b000000001000011110010011111010101 8
#880000
b01000011111001101010010010000110 #
b11011110010111101100001010111101 $
b01000011111001101010010010000110 (
b11011110010111101100001010111101 )
b01000011111001101010010010000110 -
b11011110010111101100001010111101 .
b01100101100001111110000111001001 1
b001000011111001101010010010000110 4
b111011110010111101100001010111101 6
b000100001101000010011110101000011 8
